…
#Search for missing values (NAs)
sum(is.na(movies)) #Does not appear there are any missing values

## [1] 0

#Search for duplicate entries based on title
sum(duplicated(movies$title))

## [1] 54

#Remove duplicate rows based on Title (distinct identifier)
movies %>% 
  distinct(title, .keep_all = TRUE)

## # A tibble: 2,907 × 11
##    title    genre  director  year duration  gross budget cast_facebook_l…  votes
##    <chr>    <chr>  <chr>    <dbl>    <dbl>  <dbl>  <dbl>            <dbl>  <dbl>
##  1 Avatar   Action James C…  2009      178 7.61e8 2.37e8             4834 8.86e5
##  2 Titanic  Drama  James C…  1997      194 6.59e8 2   e8            45223 7.93e5
##  3 Jurassi… Action Colin T…  2015      124 6.52e8 1.5 e8             8458 4.18e5
##  4 The Ave… Action Joss Wh…  2012      173 6.23e8 2.2 e8            87697 9.95e5
##  5 The Dar… Action Christo…  2008      152 5.33e8 1.85e8            57802 1.68e6
##  6 Star Wa… Action George …  1999      136 4.75e8 1.15e8            37723 5.35e5
##  7 Star Wa… Action George …  1977      125 4.61e8 1.1 e7            13485 9.11e5
##  8 Avenger… Action Joss Wh…  2015      141 4.59e8 2.5 e8            92000 4.63e5
##  9 The Dar… Action Christo…  2012      164 4.48e8 2.5 e8           106759 1.14e6
## 10 Shrek 2  Adven… Andrew …  2004       93 4.36e8 1.5 e8             1148 3.15e5
## # … with 2,897 more rows, and 2 more variables: reviews <dbl>, rating <dbl>
…
#Create table summarizing each stock and 'SPY'
new_table = myStocks_returns_monthly %>%
  summarise(returns_mean = mean(monthly_returns),
            returns_median = median(monthly_returns),
            returns_min = min(monthly_returns),
             returns_max = max(monthly_returns),
            returns_SD = sd(monthly_returns)) #Create columns to display summary statistics of stocks and SPY
print(new_table)

## # A tibble: 31 × 6
##    symbol returns_mean returns_median returns_min returns_max returns_SD
##    <chr>         <dbl>          <dbl>       <dbl>       <dbl>      <dbl>
##  1 AAPL        0.0269         0.0352       -0.577       0.454     0.115 
##  2 AMGN        0.00816        0.00856      -0.170       0.328     0.0732
##  3 AXP         0.0102         0.0109       -0.279       0.875     0.0921
##  4 BA          0.0126         0.0165       -0.458       0.459     0.0925
##  5 CAT         0.0144         0.0141       -0.353       0.350     0.0899
##  6 CRM         0.0262         0.0205       -0.360       0.403     0.110 
##  7 CSCO        0.00609        0.0125       -0.367       0.389     0.0962
##  8 CVX         0.00896        0.0108       -0.224       0.273     0.0655
##  9 DIS         0.0104         0.00905      -0.268       0.234     0.0737
## 10 DOW         0.0160         0.0386       -0.276       0.255     0.109 
## # … with 21 more rows
…
